waves_debug.vcd
$date
	Thu Nov 06 12:02:32 2025
$end
$version
	Icarus Verilog
$end
$timescale
	1ps
$end
$scope module tb_vending_controller_debug $end
$var wire 1 ! dispense $end
$var wire 4 " change [3:0] $end
$var wire 1 # busy $end
$var wire 4 $ balance [3:0] $end
$var reg 1 % cancel $end
$var reg 1 & clk $end
$var reg 2 ' coin [1:0] $end
$var reg 4 ( last_change [3:0] $end
$var reg 1 ) last_dispense $end
$var reg 1 * reset $end
$var reg 2 + select [1:0] $end
$var integer 32 , fail_count [31:0] $end
$var integer 32 - pass_count [31:0] $end
$scope module dut $end
$var wire 1 . balance_ge_price $end
$var wire 1 % cancel $end
$var wire 4 / change [3:0] $end
$var wire 1 & clk $end
$var wire 2 0 coin [1:0] $end
$var wire 1 * reset $end
$var wire 2 1 select [1:0] $end
$var wire 1 2 refund_mode $end
$var wire 4 3 price [3:0] $end
$var wire 1 ! dispense $end
$var wire 4 4 coin_value [3:0] $end
$var wire 4 5 cmp_out [3:0] $end
$var wire 1 6 clear_en $end
$var wire 1 7 change_nonzero $end
$var wire 4 8 change_calc_val [3:0] $end
$var wire 1 # busy $end
$var wire 4 9 balance [3:0] $end
$var wire 1 : add_en $end
$scope module u_balance $end
$var wire 1 & clk $end
$var wire 1 * reset $end
$var wire 4 ; sum_next [3:0] $end
$var wire 1 6 clear_en $end
$var wire 1 < carry_out_unused $end
$var wire 4 = add_value [3:0] $end
$var wire 1 : add_en $end
$var reg 4 > balance [3:0] $end
$scope module u_adder $end
$var wire 4 ? A [3:0] $end
$var wire 5 @ carry [4:0] $end
$var wire 4 A SUM [3:0] $end
$var wire 1 < CARRY_OUT $end
$var wire 4 B B [3:0] $end
$scope begin gen_fulladder[0] $end
$var wire 1 C a_and_c $end
$var wire 1 D aandb $end
$var wire 1 E axb $end
$var wire 1 F bandc $end
$upscope $end
$scope begin gen_fulladder[1] $end
$var wire 1 G a_and_c $end
$var wire 1 H aandb $end
$var wire 1 I axb $end
$var wire 1 J bandc $end
$upscope $end
$scope begin gen_fulladder[2] $end
$var wire 1 K a_and_c $end
$var wire 1 L aandb $end
$var wire 1 M axb $end
$var wire 1 N bandc $end
$upscope $end
$scope begin gen_fulladder[3] $end
$var wire 1 O a_and_c $end
$var wire 1 P aandb $end
$var wire 1 Q axb $end
$var wire 1 R bandc $end
$upscope $end
$upscope $end
$upscope $end
$scope module u_change $end
$var wire 4 S balance [3:0] $end
$var wire 1 T ge $end
$var wire 4 U vend_change [3:0] $end
$var wire 1 2 refund_mode $end
$var wire 4 V price [3:0] $end
$var wire 4 W diff [3:0] $end
$var wire 8 X data_bus [7:0] $end
$var wire 4 Y change [3:0] $end
$var wire 1 Z borrow_out $end
$scope module u_mux_change $end
$var wire 8 [ data [7:0] $end
$var wire 1 2 sel $end
$var wire 4 \ out [3:0] $end
$var wire 2 ] onehots [1:0] $end
$var reg 4 ^ out_reg [3:0] $end
$var integer 32 _ i [31:0] $end
$scope module dec $end
$var wire 1 ` sel_n $end
$var wire 1 2 sel $end
$var wire 2 a out [1:0] $end
$scope begin gen_inv[0] $end
$upscope $end
$scope begin gen_out[0] $end
$var wire 1 b terms $end
$scope begin gen_and1 $end
$upscope $end
$scope begin gen_terms[0] $end
$scope begin genblk5 $end
$upscope $end
$upscope $end
$upscope $end
$scope begin gen_out[1] $end
$var wire 1 c terms $end
$scope begin gen_and1 $end
$upscope $end
$scope begin gen_terms[0] $end
$scope begin genblk4 $end
$upscope $end
$upscope $end
$upscope $end
$upscope $end
$upscope $end
$scope module u_sub $end
$var wire 4 d A [3:0] $end
$var wire 1 Z BORROW_OUT $end
$var wire 5 e carry [4:0] $end
$var wire 4 f DIFF [3:0] $end
$var wire 4 g B_inv [3:0] $end
$var wire 4 h B [3:0] $end
$scope begin gen_fa[0] $end
$var wire 1 i a_and_c $end
$var wire 1 j aandb $end
$var wire 1 k axb $end
$var wire 1 l bandc $end
$upscope $end
$scope begin gen_fa[1] $end
$var wire 1 m a_and_c $end
$var wire 1 n aandb $end
$var wire 1 o axb $end
$var wire 1 p bandc $end
$upscope $end
$scope begin gen_fa[2] $end
$var wire 1 q a_and_c $end
$var wire 1 r aandb $end
$var wire 1 s axb $end
$var wire 1 t bandc $end
$upscope $end
$scope begin gen_fa[3] $end
$var wire 1 u a_and_c $end
$var wire 1 v aandb $end
$var wire 1 w axb $end
$var wire 1 x bandc $end
$upscope $end
$scope begin gen_not[0] $end
$upscope $end
$scope begin gen_not[1] $end
$upscope $end
$scope begin gen_not[2] $end
$upscope $end
$scope begin gen_not[3] $end
$upscope $end
$upscope $end
$upscope $end
$scope module u_cmp $end
$var wire 4 y A [3:0] $end
$var wire 4 z out [3:0] $end
$var wire 1 { gt $end
$var wire 1 | eq $end
$var wire 4 } B [3:0] $end
$scope begin genblk2 $end
$upscope $end
$upscope $end
$scope module u_decode $end
$var wire 2 ~ coin [1:0] $end
$var reg 4 !" value [3:0] $end
$upscope $end
$scope module u_fsm $end
$var wire 1 % cancel $end
$var wire 1 7 change_nonzero $end
$var wire 1 & clk $end
$var wire 2 "" coin [1:0] $end
$var wire 1 . ge $end
$var wire 1 * reset $end
$var wire 1 #" coin_present $end
$var reg 1 : add_en $end
$var reg 1 # busy $end
$var reg 1 6 clear_en $end
$var reg 1 ! dispense $end
$var reg 3 $" next [2:0] $end
$var reg 1 2 refund_mode $end
$var reg 3 %" state [2:0] $end
$upscope $end
$scope module u_price $end
$var wire 16 &" data_bus [15:0] $end
$var wire 4 '" p0 [3:0] $end
$var wire 4 (" p1 [3:0] $end
$var wire 4 )" p2 [3:0] $end
$var wire 4 *" p3 [3:0] $end
$var wire 2 +" select [1:0] $end
$var wire 4 ," price [3:0] $end
$scope module u_mux $end
$var wire 16 -" data [15:0] $end
$var wire 2 ." sel [1:0] $end
$var wire 4 /" out [3:0] $end
$var wire 4 0" onehots [3:0] $end
$var reg 4 1" out_reg [3:0] $end
$var integer 32 2" i [31:0] $end
$scope module dec $end
$var wire 2 3" sel [1:0] $end
$var wire 2 4" sel_n [1:0] $end
$var wire 4 5" out [3:0] $end
$scope begin gen_inv[0] $end
$upscope $end
$scope begin gen_inv[1] $end
$upscope $end
$scope begin gen_out[0] $end
$var wire 2 6" terms [1:0] $end
$scope begin gen_and_tree $end
$var wire 2 7" and_stage [1:0] $end
$scope begin gen_andchain[1] $end
$upscope $end
$upscope $end
$scope begin gen_terms[0] $end
$scope begin genblk5 $end
$upscope $end
$upscope $end
$scope begin gen_terms[1] $end
$scope begin genblk5 $end
$upscope $end
$upscope $end
$upscope $end
$scope begin gen_out[1] $end
$var wire 2 8" terms [1:0] $end
$scope begin gen_and_tree $end
$var wire 2 9" and_stage [1:0] $end
$scope begin gen_andchain[1] $end
$upscope $end
$upscope $end
$scope begin gen_terms[0] $end
$scope begin genblk4 $end
$upscope $end
$upscope $end
$scope begin gen_terms[1] $end
$scope begin genblk5 $end
$upscope $end
$upscope $end
$upscope $end
$scope begin gen_out[2] $end
$var wire 2 :" terms [1:0] $end
$scope begin gen_and_tree $end
$var wire 2 ;" and_stage [1:0] $end
$scope begin gen_andchain[1] $end
$upscope $end
$upscope $end
$scope begin gen_terms[0] $end
$scope begin genblk5 $end
$upscope $end
$upscope $end
$scope begin gen_terms[1] $end
$scope begin genblk4 $end
$upscope $end
$upscope $end
$upscope $end
$scope begin gen_out[3] $end
$var wire 2 <" terms [1:0] $end
$scope begin gen_and_tree $end
$var wire 2 =" and_stage [1:0] $end
$scope begin gen_andchain[1] $end
$upscope $end
$upscope $end
$scope begin gen_terms[0] $end
$scope begin genblk4 $end
$upscope $end
$upscope $end
$scope begin gen_terms[1] $end
$scope begin genblk4 $end
$upscope $end
$upscope $end
$upscope $end
$upscope $end
$upscope $end
$upscope $end
$upscope $end
$upscope $end
$enddefinitions $end
#0
$dumpvars
b0 ="
b0 <"
b1 ;"
b1 :"
b0 9"
b10 8"
b11 7"
b11 6"
b1 5"
b11 4"
b0 3"
b100 2"
b101 1"
b1 0"
b101 /"
b0 ."
b101001110101 -"
b101 ,"
b0 +"
b0 *"
b1010 )"
b111 ("
b101 '"
b101001110101 &"
bx %"
b0 $"
0#"
b0 ""
b0 !"
b0 ~
b101 }
x|
x{
b0xx z
bx y
xx
xw
xv
xu
0t
xs
0r
xq
xp
xo
xn
xm
0l
xk
0j
xi
b101 h
b1010 g
bx f
bx1 e
bx d
0c
1b
b1 a
1`
b10 _
bx ^
b1 ]
bx \
bx [
xZ
bx Y
bx X
bx W
b101 V
bx U
xT
bx S
0R
xQ
0P
0O
0N
xM
0L
0K
0J
xI
0H
0G
0F
xE
0D
0C
b0 B
bx A
b0 @
bx ?
bx >
b0 =
0<
bx ;
0:
bx 9
bx 8
x7
06
b0xx 5
b0 4
b101 3
02
b0 1
b0 0
bx /
x.
b0 -
b0 ,
b0 +
1*
0)
b1111 (
b0 '
0&
0%
bx $
1#
bx "
0!
$end
#5000
b0 U
0T
1Z
0p
0x
b0 ;
b0 A
b1011 W
b1011 f
b1 e
0E
0I
0M
0Q
0k
0i
1o
0n
0m
0s
0q
1w
0v
0u
0.
b10 _
b0 "
b0 /
b0 8
b0 Y
b0 \
b0 ^
07
0#
b0 X
b0 [
0|
b0 5
b0 z
0{
b0 $
b0 9
b0 >
b0 ?
b0 S
b0 d
b0 y
b0 %"
1&
#6000
b0 (
#10000
0&
#15000
0*
1&
#20000
0&
#25000
b10 ;
b10 A
1I
b10 4
b10 =
b10 B
b10 !"
b10 $"
1:
0#
1#"
b10 '
b10 0
b10 ~
b10 ""
1&
#30000
0&
#35000
b100 ;
b100 A
b100 @
b1101 W
b1101 f
b101 e
0I
1H
0o
1n
b1 $"
1#
0:
b10 _
b10 %"
b100000 X
b100000 [
b10 $
b10 9
b10 >
b10 ?
b10 S
b10 d
b10 y
1&
#36000
b0 @
b10 ;
b10 A
0H
1I
b0 4
b0 =
b0 B
b0 !"
b1 $"
0#"
b0 '
b0 0
b0 ~
b0 ""
#40000
0&
#45000
1:
b1 %"
b100 @
b100 ;
b100 A
1H
0I
b10 4
b10 =
b10 B
b10 !"
b10 $"
1#"
b10 '
b10 0
b10 ~
b10 ""
1&
#50000
0&
#55000
b0 "
b0 /
b0 8
b0 Y
b0 \
b0 ^
b0 U
0T
1Z
0x
b110 ;
b110 A
b0 @
b1111 W
b1111 f
b1 e
1I
0H
1M
0K
1o
0n
1s
0q
b1 $"
0:
b10 _
b10 %"
b1000000 X
b1000000 [
b100 $
b100 9
b100 >
b100 ?
b100 S
b100 d
b100 y
1&
#56000
b100 ;
b100 A
0I
b0 4
b0 =
b0 B
b0 !"
b1 $"
0#"
b0 '
b0 0
b0 ~
b0 ""
#60000
0&
#65000
1:
b1 %"
b101 ;
b101 A
1E
b1 4
b1 =
b1 B
b1 !"
b10 $"
1#"
b1 '
b1 0
b1 ~
b1 ""
1&
#70000
0&
#75000
1T
0Z
1x
1q
1p
b110 ;
b110 A
b10 @
b0 W
b0 f
b11111 e
0E
1D
1k
1i
1.
b11 $"
0:
b10 _
b10 %"
b1010000 X
b1010000 [
b1 5
b1 z
1|
b101 $
b101 9
b101 >
b101 ?
b101 S
b101 d
b101 y
1&
#76000
b0 @
b101 ;
b101 A
0D
1E
b0 4
b0 =
b0 B
b0 !"
b11 $"
0#"
b0 '
b0 0
b0 ~
b0 ""
#80000
0&
#85000
b0 $"
16
1!
b11 %"
1&
#86000
1)
#90000
0&
#95000
0T
1Z
0p
b0 "
b0 /
b0 8
b0 Y
b0 \
b0 ^
0x
b0 U
b0 ;
b0 A
b1011 W
b1011 f
b1 e
0E
0M
0k
0i
0s
0q
0.
0#
0!
06
b10 _
b0 %"
b0 X
b0 [
b0 5
b0 z
0|
b0 $
b0 9
b0 >
b0 ?
b0 S
b0 d
b0 y
1&
#96000
0)
